{
  "swagger": "2.0",
  "info": {
    "version": "1.0.0",
    "title": "Library",
    "description": "Library NodeJS Application API",
    "licencia": "ISC"
  },
  "basePath": "/api/v1",
  "tags": [
    {
      "name": "Book",
      "descripcion": "API for book in the system"
    }
  ],
  "consumes": [
    "application/json"
  ],
  "produces": [
    "application/json"
  ],
  "paths":{
    "/book/create": {
      "post": {
        "tags": [
          "Book"
        ],
        "description":  "Create new book in system",
        "parameters": [{
          "name": "book",
          "in": "body",
          "required": true,
          "description": "Book that we want to create",
          "example": {
              "title": "Cien años de soledad",
              "pages": 402,
              "year": 1962,
              "isbn": "123-456-7890-A1",
              "author": "Gabriel García Máquez"
          },
          "schema":{
            "$ref": "#/definitions/Book"
          }
        }],
        "produces": [
          "application/json"
        ],
        "responses": {
          "200": {
            "description": "New Book is created",
            "examples": {
              "application/json": {
                "status": true,
                "message": "Book created!"
              }

            }
          }
        }
      }
    },
    "/book/list": {
      "get": {
        "tags": [
          "Book"
        ],
        "responses": {
          "200": {
            "description": "All books are returned",
            "examples": {
              "application/json": {
                "status": true,
                "listaLibros": "array" 
              }
            }
          }
        }
      }
    },
    "/book/{isbn}": {
      "get": {
        "tags": [
          "Book"
        ],
        "responses": {
          "200": {
            "description": "Get a book by ISBN",
            "examples": {
              "application/json": {
                "status": true,
                "book": "object" 
              }
            }
          }
        }
      },
      "parameters": [
        {
          "name": "isbn",
          "in": "path",
          "required": true,
          "description": "Book isbn to find",
          "type": "string"
        }
      ]
    },
    "/book/delete/{isbn}": {
      "delete": {
        "tags": [
          "Book"
        ],
        "responses": {
          "200": {
            "description": "Delete a book by ISBN",
            "examples": {
              "application/json": {
                "status": true,
                "message": "Libro eliminado" 
              }
            }
          }
        }
      },
      "parameters": [
        {
          "name": "isbn",
          "in": "path",
          "required": true,
          "description": "Book isbn to delete",
          "type": "string"
        }
      ]
    },
    "/book/update/{isbn}": {
      "put": {
        "tags": [
          "Book"
        ],
        "parameters": [{
          "name": "book",
          "in": "body",
          "required": true,
          "description": "Book data to update",
          "schema":{
            "$ref": "#/definitions/Book"
          }
        }],
        "responses": {
          "200": {
            "description": "Update a book",
            "examples": {
              "application/json": {
                "status": true,
                "message": "Libro actualizado" 
              }
            }
          }
        }
      },
      "parameters": [{
        "name": "isbn",
        "in": "path",
        "required": true,
        "description": "Book isbn to delete",
        "type": "string"
      }]
    }
  },
  "definitions": {
    "Book": {
      "required": [
        "title","pages","year","isbn","author"
      ],
      "properties": {
        "title": {
          "type": "string",
          "uniqueItems": false,
          "example": "Cien años de soledad"
        },
        "pages": {
          "type": "integer",
          "example": "4023"
        },
        "year": {
          "type": "integer",
          "example": 1962
        },
        "isbn": {
          "type": "string",
          "uniqueItems": false,
          "example": "123-456-7890-A1"
        },
        "author": {
          "type": "string",
          "uniqueItems": false,
          "example": "Gabriel García Maáquez"
        }
      }
    }
  }
}